test.vcd
$date
	Sat Apr 14 16:42:42 2018
$end
$version
	Icarus Verilog
$end
$timescale
	1s
$end
$scope module test $end
$var wire 32 ! zero [31:0] $end
$var wire 32 " stack_esp [31:0] $end
$var wire 32 # stack_current [31:0] $end
$var wire 32 $ stack_addr_access [31:0] $end
$var wire 32 % stack_addr [31:0] $end
$var wire 32 & selected_registor_output [31:0] $end
$var wire 4 ' selected_reg_load [3:0] $end
$var wire 4 ( select_3 [3:0] $end
$var wire 4 ) select_2 [3:0] $end
$var wire 4 * select_1 [3:0] $end
$var wire 4 + reg_load_3 [3:0] $end
$var wire 4 , reg_load_2 [3:0] $end
$var wire 4 - reg_load_1 [3:0] $end
$var wire 32 . ope [31:0] $end
$var wire 4 / num_of_ope [3:0] $end
$var wire 32 0 esp [31:0] $end
$var wire 32 1 eip [31:0] $end
$var wire 32 2 edi [31:0] $end
$var wire 32 3 ebx [31:0] $end
$var wire 32 4 ebp [31:0] $end
$var wire 32 5 eax [31:0] $end
$var wire 1 6 clock_9 $end
$var wire 1 7 clock_8 $end
$var wire 1 8 clock_7 $end
$var wire 1 9 clock_6 $end
$var wire 1 : clock_5 $end
$var wire 1 ; clock_4 $end
$var wire 1 < clock_3 $end
$var wire 1 = clock_2 $end
$var wire 1 > clock_12 $end
$var wire 1 ? clock_11 $end
$var wire 1 @ clock_10 $end
$var wire 1 A clock_1 $end
$var wire 32 B alu_result_bus [31:0] $end
$var reg 1 C clk $end
$var reg 1 D reset $end
$scope module alu $end
$var wire 32 E debug2 [31:0] $end
$var wire 32 F debug2a [31:0] $end
$var wire 32 G immidiate_data [31:0] $end
$var wire 32 H zero [31:0] $end
$var wire 32 I registor_in [31:0] $end
$var wire 32 J ope_31_24 [31:0] $end
$var wire 32 K ope_23_16 [31:0] $end
$var wire 32 L ope_15_08 [31:0] $end
$var wire 32 M ope_07_00 [31:0] $end
$var wire 32 N ope [31:0] $end
$var wire 4 O num_of_ope [3:0] $end
$var wire 32 P eax [31:0] $end
$var wire 32 Q debug1a [31:0] $end
$var wire 8 R debug1 [7:0] $end
$var wire 1 7 clock_8 $end
$var wire 1 9 clock_6 $end
$var wire 1 ; clock_4 $end
$var wire 32 S a [31:0] $end
$var reg 32 T alu_result_bus [31:0] $end
$upscope $end
$scope module alu_result_selector $end
$var wire 4 U selected_reg_load [3:0] $end
$var wire 4 V reg_load_3 [3:0] $end
$var wire 4 W reg_load_2 [3:0] $end
$var wire 4 X reg_load_1 [3:0] $end
$var wire 1 7 clock_3 $end
$var wire 1 9 clock_2 $end
$var wire 1 ; clock_1 $end
$scope function select $end
$var reg 1 Y clock_1 $end
$var reg 1 Z clock_2 $end
$var reg 1 [ clock_3 $end
$var reg 4 \ reg_load_1 [3:0] $end
$var reg 4 ] reg_load_2 [3:0] $end
$var reg 4 ^ reg_load_3 [3:0] $end
$var reg 4 _ select [3:0] $end
$upscope $end
$upscope $end
$scope module clock $end
$var wire 1 C clk $end
$var wire 1 D reset $end
$var reg 1 A clock_1 $end
$var reg 1 @ clock_10 $end
$var reg 1 ` clock_10_t $end
$var reg 1 ? clock_11 $end
$var reg 1 a clock_11_t $end
$var reg 1 > clock_12 $end
$var reg 1 b clock_12_t $end
$var reg 1 c clock_1_t $end
$var reg 1 = clock_2 $end
$var reg 1 d clock_2_t $end
$var reg 1 < clock_3 $end
$var reg 1 e clock_3_t $end
$var reg 1 ; clock_4 $end
$var reg 1 f clock_4_t $end
$var reg 1 : clock_5 $end
$var reg 1 g clock_5_t $end
$var reg 1 9 clock_6 $end
$var reg 1 h clock_6_t $end
$var reg 1 8 clock_7 $end
$var reg 1 i clock_7_t $end
$var reg 1 7 clock_8 $end
$var reg 1 j clock_8_t $end
$var reg 1 6 clock_9 $end
$var reg 1 k clock_9_t $end
$var reg 8 l count [7:0] $end
$upscope $end
$scope module decode $end
$var wire 1 = clk2 $end
$var wire 1 D reset $end
$var wire 4 m select_3 [3:0] $end
$var wire 4 n select_2 [3:0] $end
$var wire 4 o select_1 [3:0] $end
$var wire 4 p reg_load_3 [3:0] $end
$var wire 4 q reg_load_2 [3:0] $end
$var wire 4 r reg_load_1 [3:0] $end
$var wire 16 s ope1 [15:0] $end
$var wire 32 t ope [31:0] $end
$var reg 4 u num_of_ope [3:0] $end
$scope function calc_ope $end
$var reg 4 v calc_ope [3:0] $end
$var reg 16 w ope [15:0] $end
$upscope $end
$scope function load_reg_1 $end
$var reg 4 x load_reg_1 [3:0] $end
$var reg 16 y ope [15:0] $end
$upscope $end
$scope function load_reg_2 $end
$var reg 4 z load_reg_2 [3:0] $end
$var reg 16 { ope [15:0] $end
$upscope $end
$scope function load_reg_3 $end
$var reg 4 | load_reg_3 [3:0] $end
$var reg 16 } ope [15:0] $end
$upscope $end
$scope function select_input_1 $end
$var reg 16 ~ ope [15:0] $end
$var reg 4 !" select_input_1 [3:0] $end
$upscope $end
$scope function select_input_2 $end
$var reg 16 "" ope [15:0] $end
$var reg 4 #" select_input_2 [3:0] $end
$upscope $end
$scope function select_input_3 $end
$var reg 16 $" ope [15:0] $end
$var reg 4 %" select_input_3 [3:0] $end
$upscope $end
$upscope $end
$scope module eax_register $end
$var wire 1 ; clock_4 $end
$var wire 1 9 clock_6 $end
$var wire 4 &" read_or_write [3:0] $end
$var wire 1 D reset $end
$var wire 32 '" write_data [31:0] $end
$var reg 32 (" eax [31:0] $end
$upscope $end
$scope module ebp_register $end
$var wire 1 ; clock_4 $end
$var wire 1 9 clock_6 $end
$var wire 4 )" read_or_write [3:0] $end
$var wire 1 D reset $end
$var wire 32 *" write_data [31:0] $end
$var reg 32 +" ebp [31:0] $end
$upscope $end
$scope module ebx_register $end
$var wire 1 ; clock_4 $end
$var wire 1 9 clock_6 $end
$var wire 4 ," read_or_write [3:0] $end
$var wire 1 D reset $end
$var wire 32 -" write_data [31:0] $end
$var reg 32 ." ebx [31:0] $end
$upscope $end
$scope module edi_register $end
$var wire 1 ; clock_4 $end
$var wire 1 9 clock_6 $end
$var wire 4 /" read_or_write [3:0] $end
$var wire 1 D reset $end
$var wire 32 0" write_data [31:0] $end
$var reg 32 1" edi [31:0] $end
$upscope $end
$scope module eip_register $end
$var wire 1 > clock_12 $end
$var wire 1 ; clock_4 $end
$var wire 1 9 clock_6 $end
$var wire 1 7 clock_8 $end
$var wire 4 2" num_of_ope [3:0] $end
$var wire 4 3" read_or_write [3:0] $end
$var wire 1 D reset $end
$var wire 32 4" write_data [31:0] $end
$var reg 32 5" eip [31:0] $end
$upscope $end
$scope module esp_register $end
$var wire 32 6" alu_result_bus [31:0] $end
$var wire 1 7" clk1 $end
$var wire 1 ; clock_4 $end
$var wire 1 9 clock_6 $end
$var wire 1 7 clock_8 $end
$var wire 4 8" read_or_write [3:0] $end
$var wire 1 D reset $end
$var reg 32 9" esp [31:0] $end
$upscope $end
$scope module fetch $end
$var wire 1 A clk1 $end
$var wire 32 :" eip [31:0] $end
$var wire 1 D reset $end
$var wire 32 ;" data [31:0] $end
$var reg 32 <" ope_data [31:0] $end
$scope module program_memory $end
$var wire 32 =" addr [31:0] $end
$var wire 1 D reset $end
$var wire 32 >" ope [31:0] $end
$upscope $end
$upscope $end
$scope module selector $end
$var wire 1 < clock_3 $end
$var wire 1 : clock_5 $end
$var wire 1 8 clock_7 $end
$var wire 32 ?" eax [31:0] $end
$var wire 32 @" ebp [31:0] $end
$var wire 32 A" ebx [31:0] $end
$var wire 32 B" edi [31:0] $end
$var wire 32 C" eip [31:0] $end
$var wire 32 D" esp [31:0] $end
$var wire 4 E" select_1 [3:0] $end
$var wire 4 F" select_2 [3:0] $end
$var wire 4 G" select_3 [3:0] $end
$var wire 32 H" zero [31:0] $end
$var wire 32 I" stack_addr_access [31:0] $end
$var wire 32 J" stack [31:0] $end
$var wire 32 K" registor_output [31:0] $end
$scope function select $end
$var reg 1 L" clock_3 $end
$var reg 1 M" clock_5 $end
$var reg 1 N" clock_7 $end
$var reg 32 O" ebp [31:0] $end
$var reg 32 P" eip [31:0] $end
$var reg 4 Q" sel1 [3:0] $end
$var reg 4 R" sel2 [3:0] $end
$var reg 4 S" sel3 [3:0] $end
$var reg 32 T" select [31:0] $end
$upscope $end
$upscope $end
$scope module stack_addr_register $end
$var wire 1 ; clock_4 $end
$var wire 4 U" read_or_write [3:0] $end
$var wire 1 D reset $end
$var wire 32 V" write_data [31:0] $end
$var reg 32 W" stack_addr [31:0] $end
$upscope $end
$scope module stack_memory $end
$var wire 1 ; clock_4 $end
$var wire 1 9 clock_6 $end
$var wire 32 X" esp [31:0] $end
$var wire 4 Y" read_or_write [3:0] $end
$var wire 1 D reset $end
$var wire 32 Z" stack_addr [31:0] $end
$var wire 32 [" write_data [31:0] $end
$var wire 32 \" stack_esp [31:0] $end
$var reg 32 ]" stack_addr_access [31:0] $end
$var reg 32 ^" stack_current [31:0] $end
$upscope $end
$scope module zero_register $end
$var wire 1 ; clock_4 $end
$var wire 1 9 clock_6 $end
$var wire 4 _" read_or_write [3:0] $end
$var wire 1 D reset $end
$var wire 32 `" write_data [31:0] $end
$var reg 32 a" zero [31:0] $end
$upscope $end
$upscope $end
$enddefinitions $end
#0
$dumpvars
bx a"
bx `"
bx _"
bx ^"
bx ]"
bx \"
bx ["
bx Z"
bx Y"
bx X"
bx W"
bx V"
bx U"
bx T"
bx S"
bx R"
bx Q"
bx P"
bx O"
xN"
xM"
xL"
bx K"
bx J"
bx I"
bx H"
bx G"
bx F"
bx E"
bx D"
bx C"
bx B"
bx A"
bx @"
bx ?"
bx >"
bx ="
bx <"
bx ;"
bx :"
bx 9"
bx 8"
z7"
bx 6"
bx 5"
bx 4"
bx 3"
bx 2"
bx 1"
bx 0"
bx /"
bx ."
bx -"
bx ,"
bx +"
bx *"
bx )"
bx ("
bx '"
bx &"
bx %"
bx $"
bx #"
bx ""
bx !"
bx ~
bx }
bx |
bx {
bx z
bx y
bx x
bx w
bx v
bx u
bx t
bx s
bx r
bx q
bx p
bx o
bx n
bx m
bx l
xk
xj
xi
xh
xg
xf
xe
xd
xc
xb
xa
x`
bx _
bx ^
bx ]
bx \
x[
xZ
xY
bx X
bx W
bx V
bx U
bx T
bx S
bx R
b0xxxxxxxx Q
bx P
bx O
bx N
b0xxxxxxx M
b0xxxxxxxx L
b0xxxxxxxx K
b0xxxxxxxx J
bx I
bx H
b0 G
bx F
bx E
xD
0C
bx B
xA
x@
x?
x>
x=
x<
x;
x:
x9
x8
x7
x6
bx 5
bx 4
bx 3
bx 2
bx 1
bx 0
bx /
bx .
bx -
bx ,
bx +
bx *
bx )
bx (
bx '
bx &
bx %
bx $
bx #
bx "
bx !
$end
#1
0A
1C
#2
b0 y
b0 ~
b0 {
b0 ""
b0 }
b0 $"
b0 Q
b0 R
0[
0Z
0Y
b100110011001 O"
b1010000 P"
0N"
0M"
0L"
b0 s
b0 M
b0 L
b0 K
b0 J
0b
0a
0`
0k
0j
0i
0h
0g
0f
0e
0d
0c
0>
0?
0@
06
07
08
09
0:
0;
0<
0=
b0 l
b0 /
b0 O
b0 u
b0 2"
bx $
bx I"
bx ]"
b0 #
b0 ^"
b0 !
b0 H
b0 H"
b0 a"
b100010001000 3
b100010001000 ."
b100010001000 A"
b100010001000 2
b100010001000 1"
b100010001000 B"
b100110011001 5
b100110011001 P
b100110011001 ("
b100110011001 ?"
b100110011001 %
b100110011001 W"
b100110011001 Z"
b100110011001 4
b100110011001 +"
b100110011001 @"
b1010101100010011110010110000011 ;"
b1010101100010011110010110000011 >"
b1010000 1
b1010000 5"
b1010000 :"
b1010000 ="
b1010000 C"
b0 0
b0 9"
b0 D"
b0 X"
b0 .
b0 N
b0 t
b0 <"
0C
1D
#3
1C
#4
0C
0D
#5
b1 l
1C
#6
0C
#7
b10 l
1C
#8
0C
#9
b11 l
1C
#10
0C
#11
b100 l
1C
#12
0C
#13
b101 l
1C
#14
0C
#15
b110 l
1C
#16
0C
#17
b111 l
1C
#18
0C
#19
b1000 l
1C
#20
0C
#21
b1001 l
1C
#22
0C
#23
b1010 l
1C
#24
0C
#25
b1011 l
1C
#26
0C
#27
b1100 l
1C
#28
0C
#29
b1101 l
1C
#30
0C
#31
b1110 l
1C
#32
0C
#33
b1111 l
1C
#34
0C
#35
b10000 l
1C
#36
0C
#37
b10001 l
1C
#38
0C
#39
b10010 l
1C
#40
0C
#41
b10011 l
1C
#42
0C
#43
b10100 l
1C
#44
0C
#45
b10101 l
1C
#46
0C
#47
b10110 l
1C
#48
0C
#49
b10111 l
1C
#50
0C
#51
b11000 l
1C
#52
0C
#53
b1 ]
b1 \
b1 R"
b10 Q"
b1 -
b1 X
b1 r
b1 x
b101010110001001 y
b10 *
b10 o
b10 E"
b10 !"
b101010110001001 ~
b1 ,
b1 W
b1 q
b1 z
b101010110001001 {
b1 )
b1 n
b1 F"
b1 #"
b101010110001001 ""
b101010110001001 }
b101010110001001 $"
b11011 Q
b11100101 R
b101010110001001 s
b1000001 M
b11100101 L
b10001001 K
b1010101 J
b1010101100010011110010110000011 .
b1010101100010011110010110000011 N
b1010101100010011110010110000011 t
b1010101100010011110010110000011 <"
1A
b1 l
1C
#54
0C
#55
1c
0A
b10 l
1C
#56
0C
#57
b1 /
b1 O
b1 u
b1 2"
b1 v
b101010110001001 w
0c
1=
b11 l
1C
#58
0C
#59
0=
1d
b100 l
1C
#60
0C
#61
b11111111111111111111111111100101 S
b0 F
b0 &
b0 I
b0 K"
b0 T"
1L"
0d
1<
b101 l
1C
#62
0C
#63
0L"
0<
1e
b110 l
1C
#64
0C
#65
b100 E
b100 B
b100 T
b100 '"
b100 *"
b100 -"
b100 0"
b100 4"
b100 6"
b100 V"
b100 ["
b100 `"
b1 '
b1 U
b1 &"
b1 )"
b1 ,"
b1 /"
b1 3"
b1 8"
b1 U"
b1 Y"
b1 _"
b1 _
1Y
0e
1;
b111 l
1C
#66
0C
#67
b100 0
b100 9"
b100 D"
b100 X"
0Y
0;
1f
b1000 l
1C
#68
0C
#69
b100101111110 S
b100110011001 F
b100110011001 &
b100110011001 I
b100110011001 K"
b100110011001 T"
1M"
0f
1:
b1001 l
1C
#70
0C
#71
0M"
0:
1g
b1010 l
1C
#72
0C
#73
b100110011001 E
b100110011001 B
b100110011001 T
b100110011001 '"
b100110011001 *"
b100110011001 -"
b100110011001 0"
b100110011001 4"
b100110011001 6"
b100110011001 V"
b100110011001 ["
b100110011001 `"
1Z
0g
19
b1011 l
1C
#74
0C
#75
b100110011001 "
b100110011001 J"
b100110011001 \"
b100110011001 #
b100110011001 ^"
0Z
09
1h
b1100 l
1C
#76
0C
#77
1N"
0h
18
b1101 l
1C
#78
0C
#79
0N"
08
1i
b1110 l
1C
#80
0C
#81
bx '
bx U
bx &"
bx )"
bx ,"
bx /"
bx 3"
bx 8"
bx U"
bx Y"
bx _"
bx _
1[
0i
17
b1111 l
1C
#82
0C
#83
0[
07
1j
b10000 l
1C
#84
0C
#85
0j
16
b10001 l
1C
#86
0C
#87
06
1k
b10010 l
1C
#88
0C
#89
0k
1@
b10011 l
1C
#90
0C
#91
0@
1`
b10100 l
1C
#92
0C
#93
0`
1?
b10101 l
1C
#94
0C
#95
0?
1a
b10110 l
1C
#96
0C
#97
b1010001 P"
b10001001111001011000001111101100 ;"
b10001001111001011000001111101100 >"
b1010001 1
b1010001 5"
b1010001 :"
b1010001 ="
b1010001 C"
0a
1>
b10111 l
1C
#98
0C
#99
0>
1b
b11000 l
1C
#100
0C
#101
bx ]
b10 \
bx R"
b10 -
b10 X
b10 r
b10 x
b1000100111100101 y
b1000100111100101 ~
bx ,
bx W
bx q
bx z
b1000100111100101 {
bx )
bx n
bx F"
bx #"
b1000100111100101 ""
b1000100111100101 }
b1000100111100101 $"
b100100011100 S
b1111101 Q
b10000011 R
b1000100111100101 s
b1110110 M
b10000011 L
b11100101 K
b10001001 J
b10001001111001011000001111101100 .
b10001001111001011000001111101100 N
b10001001111001011000001111101100 t
b10001001111001011000001111101100 <"
0b
1A
b1 l
1C
#102
0C
#103
1c
0A
b10 l
1C
#104
0C
#105
b10 /
b10 O
b10 u
b10 2"
b10 v
b1000100111100101 w
0c
1=
b11 l
1C
#106
0C
#107
0=
1d
b100 l
1C
#108
0C
#109
b11111111111111111111111110000111 S
b100 F
b100 &
b100 I
b100 K"
b100 T"
1L"
0d
1<
b101 l
1C
#110
0C
#111
0L"
0<
1e
b110 l
1C
#112
0C
#113
b100 E
b100 B
b100 T
b100 '"
b100 *"
b100 -"
b100 0"
b100 4"
b100 6"
b100 V"
b100 ["
b100 `"
b10 '
b10 U
b10 &"
b10 )"
b10 ,"
b10 /"
b10 3"
b10 8"
b10 U"
b10 Y"
b10 _"
b10 _
1Y
0e
1;
b111 l
1C
#114
0C
#115
b100 O"
b100 4
b100 +"
b100 @"
0Y
0;
1f
b1000 l
1C
#116
0C
#117
1M"
0f
1:
b1001 l
1C
#118
0C
#119
0M"
0:
1g
b1010 l
1C
#120
0C
#121
bx '
bx U
bx &"
bx )"
bx ,"
bx /"
bx 3"
bx 8"
bx U"
bx Y"
bx _"
bx _
1Z
0g
19
b1011 l
1C
#122
0C
#123
0Z
09
1h
b1100 l
1C
#124
0C
#125
1N"
0h
18
b1101 l
1C
#126
0C
#127
0N"
08
1i
b1110 l
1C
#128
0C
#129
1[
0i
17
b1111 l
1C
#130
0C
#131
0[
07
1j
b10000 l
1C
#132
0C
#133
0j
16
b10001 l
1C
#134
0C
#135
06
1k
b10010 l
1C
#136
0C
#137
0k
1@
b10011 l
1C
#138
0C
#139
0@
1`
b10100 l
1C
#140
0C
#141
0`
1?
b10101 l
1C
#142
0C
#143
0?
1a
b10110 l
1C
#144
0C
#145
b1010011 P"
b10000011111011000001100010000011 ;"
b10000011111011000001100010000011 >"
b1010011 1
b1010011 5"
b1010011 :"
b1010011 ="
b1010011 C"
0a
1>
b10111 l
1C
#146
0C
#147
0>
1b
b11000 l
1C
#148
0C
#149
b1 \
b1 -
b1 X
b1 r
b1 x
b1000001111101100 y
b1000001111101100 ~
b1000001111101100 {
b1000001111101100 ""
b1000001111101100 }
b1000001111101100 $"
b11111111111111111111111100011100 S
b11101000 Q
b11000 R
b1000001111101100 s
b1000001 M
b11000 L
b11101100 K
b10000011 J
b10000011111011000001100010000011 .
b10000011111011000001100010000011 N
b10000011111011000001100010000011 t
b10000011111011000001100010000011 <"
0b
1A
b1 l
1C
#150
0C
#151
1c
0A
b10 l
1C
#152
0C
#153
b11 /
b11 O
b11 u
b11 2"
b11 v
b1000001111101100 w
0c
1=
b11 l
1C
#154
0C
#155
0=
1d
b100 l
1C
#156
0C
#157
1L"
0d
1<
b101 l
1C
#158
0C
#159
0L"
0<
1e
b110 l
1C
#160
0C
#161
b11100 E
b11100 B
b11100 T
b11100 '"
b11100 *"
b11100 -"
b11100 0"
b11100 4"
b11100 6"
b11100 V"
b11100 ["
b11100 `"
b1 '
b1 U
b1 &"
b1 )"
b1 ,"
b1 /"
b1 3"
b1 8"
b1 U"
b1 Y"
b1 _"
b1 _
1Y
0e
1;
b111 l
1C
#162
0C
#163
bx "
bx J"
bx \"
b11100 0
b11100 9"
b11100 D"
b11100 X"
0Y
0;
1f
b1000 l
1C
#164
0C
#165
1M"
0f
1:
b1001 l
1C
#166
0C
#167
0M"
0:
1g
b1010 l
1C
#168
0C
#169
bx '
bx U
bx &"
bx )"
bx ,"
bx /"
bx 3"
bx 8"
bx U"
bx Y"
bx _"
bx _
1Z
0g
19
b1011 l
1C
#170
0C
#171
0Z
09
1h
b1100 l
1C
#172
0C
#173
1N"
0h
18
b1101 l
1C
#174
0C
#175
0N"
08
1i
b1110 l
1C
#176
0C
#177
1[
0i
17
b1111 l
1C
#178
0C
#179
0[
07
1j
b10000 l
1C
#180
0C
#181
0j
16
b10001 l
1C
#182
0C
#183
06
1k
b10010 l
1C
#184
0C
#185
0k
1@
b10011 l
1C
#186
0C
#187
0@
1`
b10100 l
1C
#188
0C
#189
0`
1?
b10101 l
1C
#190
0C
#191
0?
1a
b10110 l
1C
#192
0C
#193
b1010110 P"
b10000011111011000000110001101010 ;"
b10000011111011000000110001101010 >"
b1010110 1
b1010110 5"
b1010110 :"
b1010110 ="
b1010110 C"
0a
1>
b10111 l
1C
#194
0C
#195
0>
1b
b11000 l
1C
#196
0C
#197
b11111111111111111111111100010000 S
b11110100 Q
b1100 R
b110101 M
b1100 L
b10000011111011000000110001101010 .
b10000011111011000000110001101010 N
b10000011111011000000110001101010 t
b10000011111011000000110001101010 <"
0b
1A
b1 l
1C
#198
0C
#199
1c
0A
b10 l
1C
#200
0C
#201
0c
1=
b11 l
1C
#202
0C
#203
0=
1d
b100 l
1C
#204
0C
#205
b11111111111111111111111100101000 S
b11100 F
b11100 &
b11100 I
b11100 K"
b11100 T"
1L"
0d
1<
b101 l
1C
#206
0C
#207
0L"
0<
1e
b110 l
1C
#208
0C
#209
b101000 E
b101000 B
b101000 T
b101000 '"
b101000 *"
b101000 -"
b101000 0"
b101000 4"
b101000 6"
b101000 V"
b101000 ["
b101000 `"
b1 '
b1 U
b1 &"
b1 )"
b1 ,"
b1 /"
b1 3"
b1 8"
b1 U"
b1 Y"
b1 _"
b1 _
1Y
0e
1;
b111 l
1C
#210
0C
#211
b101000 0
b101000 9"
b101000 D"
b101000 X"
0Y
0;
1f
b1000 l
1C
#212
0C
#213
1M"
0f
1:
b1001 l
1C
#214
0C
#215
0M"
0:
1g
b1010 l
1C
#216
0C
#217
bx '
bx U
bx &"
bx )"
bx ,"
bx /"
bx 3"
bx 8"
bx U"
bx Y"
bx _"
bx _
1Z
0g
19
b1011 l
1C
#218
0C
#219
0Z
09
1h
b1100 l
1C
#220
0C
#221
1N"
0h
18
b1101 l
1C
#222
0C
#223
0N"
08
1i
b1110 l
1C
#224
0C
#225
1[
0i
17
b1111 l
1C
#226
0C
#227
0[
07
1j
b10000 l
1C
#228
0C
#229
0j
16
b10001 l
1C
#230
0C
#231
06
1k
b10010 l
1C
#232
0C
#233
0k
1@
b10011 l
1C
#234
0C
#235
0@
1`
b10100 l
1C
#236
0C
#237
0`
1?
b10101 l
1C
#238
0C
#239
0?
1a
b10110 l
1C
#240
0C
#241
b1011001 P"
b1101010000001111110100010100000 ;"
b1101010000001111110100010100000 >"
b1011001 1
b1011001 5"
b1011001 :"
b1011001 ="
b1011001 C"
0a
1>
b10111 l
1C
#242
0C
#243
0>
1b
b11000 l
1C
#244
0C
#245
b1 ]
b100 R"
b110101000000111 y
b110101000000111 ~
b1 ,
b1 W
b1 q
b1 z
b110101000000111 {
b100 )
b100 n
b100 F"
b100 #"
b110101000000111 ""
b110101000000111 }
b110101000000111 $"
b100 S
b11000 Q
b11101000 R
b110101000000111 s
b1010000 M
b11101000 L
b111 K
b1101010 J
b1101010000001111110100010100000 .
b1101010000001111110100010100000 N
b1101010000001111110100010100000 t
b1101010000001111110100010100000 <"
0b
1A
b1 l
1C
#246
0C
#247
1c
0A
b10 l
1C
#248
0C
#249
b10 /
b10 O
b10 u
b10 2"
b10 v
b110101000000111 w
0c
1=
b11 l
1C
#250
0C
#251
0=
1d
b100 l
1C
#252
0C
#253
b10000 S
b101000 F
b101000 &
b101000 I
b101000 K"
b101000 T"
1L"
0d
1<
b101 l
1C
#254
0C
#255
0L"
0<
1e
b110 l
1C
#256
0C
#257
b101100 E
b101100 B
b101100 T
b101100 '"
b101100 *"
b101100 -"
b101100 0"
b101100 4"
b101100 6"
b101100 V"
b101100 ["
b101100 `"
b1 '
b1 U
b1 &"
b1 )"
b1 ,"
b1 /"
b1 3"
b1 8"
b1 U"
b1 Y"
b1 _"
b1 _
1Y
0e
1;
b111 l
1C
#258
0C
#259
b101100 0
b101100 9"
b101100 D"
b101100 X"
0Y
0;
1f
b1000 l
1C
#260
0C
#261
b10100 S
b101100 F
b101100 &
b101100 I
b101100 K"
b101100 T"
1M"
0f
1:
b1001 l
1C
#262
0C
#263
0M"
0:
1g
b1010 l
1C
#264
0C
#265
b111 E
b111 B
b111 T
b111 '"
b111 *"
b111 -"
b111 0"
b111 4"
b111 6"
b111 V"
b111 ["
b111 `"
1Z
0g
19
b1011 l
1C
#266
0C
#267
b111 "
b111 J"
b111 \"
b111 #
b111 ^"
0Z
09
1h
b1100 l
1C
#268
0C
#269
1N"
0h
18
b1101 l
1C
#270
0C
#271
0N"
08
1i
b1110 l
1C
#272
0C
#273
bx '
bx U
bx &"
bx )"
bx ,"
bx /"
bx 3"
bx 8"
bx U"
bx Y"
bx _"
bx _
1[
0i
17
b1111 l
1C
#274
0C
#275
0[
07
1j
b10000 l
1C
#276
0C
#277
0j
16
b10001 l
1C
#278
0C
#279
06
1k
b10010 l
1C
#280
0C
#281
0k
1@
b10011 l
1C
#282
0C
#283
0@
1`
b10100 l
1C
#284
0C
#285
0`
1?
b10101 l
1C
#286
0C
#287
0?
1a
b10110 l
1C
#288
0C
#289
b1011011 P"
b11101000101000001111111111111111 ;"
b11101000101000001111111111111111 >"
b1011011 1
b1011011 5"
b1011011 :"
b1011011 ="
b1011011 C"
0a
1>
b10111 l
1C
#290
0C
#291
0>
1b
b11000 l
1C
#292
0C
#293
b100 ^
b10 S"
b11 R"
b1110100010100000 y
b1110100010100000 ~
b1110100010100000 {
b11 )
b11 n
b11 F"
b11 #"
b1110100010100000 ""
b100 +
b100 V
b100 p
b100 |
b1110100010100000 }
b10 (
b10 m
b10 G"
b10 %"
b1110100010100000 $"
b101011 S
b1 Q
b11111111 R
b1110100010100000 s
b1111111 M
b11111111 L
b10100000 K
b11101000 J
b11101000101000001111111111111111 .
b11101000101000001111111111111111 N
b11101000101000001111111111111111 t
b11101000101000001111111111111111 <"
0b
1A
b1 l
1C
#294
0C
#295
1c
0A
b10 l
1C
#296
0C
#297
b101 /
b101 O
b101 u
b101 2"
b101 v
b1110100010100000 w
0c
1=
b11 l
1C
#298
0C
#299
0=
1d
b100 l
1C
#300
0C
#301
1L"
0d
1<
b101 l
1C
#302
0C
#303
0L"
0<
1e
b110 l
1C
#304
0C
#305
b110000 E
b110000 B
b110000 T
b110000 '"
b110000 *"
b110000 -"
b110000 0"
b110000 4"
b110000 6"
b110000 V"
b110000 ["
b110000 `"
b1 '
b1 U
b1 &"
b1 )"
b1 ,"
b1 /"
b1 3"
b1 8"
b1 U"
b1 Y"
b1 _"
b1 _
1Y
0e
1;
b111 l
1C
#306
0C
#307
bx "
bx J"
bx \"
b110000 0
b110000 9"
b110000 D"
b110000 X"
0Y
0;
1f
b1000 l
1C
#308
0C
#309
b1011010 S
b1011011 F
b1011011 &
b1011011 I
b1011011 K"
b1011011 T"
1M"
0f
1:
b1001 l
1C
#310
0C
#311
0M"
0:
1g
b1010 l
1C
#312
0C
#313
b1100000 E
b1100000 B
b1100000 T
b1100000 '"
b1100000 *"
b1100000 -"
b1100000 0"
b1100000 4"
b1100000 6"
b1100000 V"
b1100000 ["
b1100000 `"
1Z
0g
19
b1011 l
1C
#314
0C
#315
b1100000 "
b1100000 J"
b1100000 \"
b1100000 #
b1100000 ^"
0Z
09
1h
b1100 l
1C
#316
0C
#317
1N"
0h
18
b1101 l
1C
#318
0C
#319
0N"
08
1i
b1110 l
1C
#320
0C
#321
b11111111111111111111111111111011 E
b11111111111111111111111111111011 B
b11111111111111111111111111111011 T
b11111111111111111111111111111011 '"
b11111111111111111111111111111011 *"
b11111111111111111111111111111011 -"
b11111111111111111111111111111011 0"
b11111111111111111111111111111011 4"
b11111111111111111111111111111011 6"
b11111111111111111111111111111011 V"
b11111111111111111111111111111011 ["
b11111111111111111111111111111011 `"
b100 '
b100 U
b100 &"
b100 )"
b100 ,"
b100 /"
b100 3"
b100 8"
b100 U"
b100 Y"
b100 _"
b100 _
1[
0i
17
b1111 l
1C
#322
0C
#323
b11111111111111111111111111111011 P"
bx ;"
bx >"
b11111111111111111111111111111011 1
b11111111111111111111111111111011 5"
b11111111111111111111111111111011 :"
b11111111111111111111111111111011 ="
b11111111111111111111111111111011 C"
0[
07
1j
b10000 l
1C
#324
0C
#325
0j
16
b10001 l
1C
#326
0C
#327
06
1k
b10010 l
1C
#328
0C
#329
0k
1@
b10011 l
1C
#330
0C
#331
0@
1`
b10100 l
1C
#332
0C
#333
0`
1?
b10101 l
1C
#334
0C
#335
0?
1a
b10110 l
1C
#336
0C
#337
b0 P"
b1010101100010011110010101010011 ;"
b1010101100010011110010101010011 >"
b0 1
b0 5"
b0 :"
b0 ="
b0 C"
0a
1>
b10111 l
1C
#338
0C
#339
0>
1b
b11000 l
1C
#340
0C
#341
bx ^
bx S"
b1 R"
b101010110001001 y
b101010110001001 ~
b101010110001001 {
b1 )
b1 n
b1 F"
b1 #"
b101010110001001 ""
bx +
bx V
bx p
bx |
b101010110001001 }
bx (
bx m
bx G"
bx %"
b101010110001001 $"
b1000000 S
b11011 Q
b11100101 R
b101010110001001 s
b101001 M
b11100101 L
b10001001 K
b1010101 J
b1010101100010011110010101010011 .
b1010101100010011110010101010011 N
b1010101100010011110010101010011 t
b1010101100010011110010101010011 <"
0b
1A
b1 l
1C
#342
0C
#343
1c
0A
b10 l
1C
#344
0C
#345
b1 /
b1 O
b1 u
b1 2"
b1 v
b101010110001001 w
0c
1=
b11 l
1C
#346
0C
#347
0=
1d
b100 l
1C
#348
0C
#349
b10101 S
b110000 F
b110000 &
b110000 I
b110000 K"
b110000 T"
1L"
0d
1<
b101 l
1C
#350
0C
#351
0L"
0<
1e
b110 l
1C
#352
0C
